src/charlatan/wave.vcd
$date
	Fri Feb 21 23:41:53 2020
$end
$version
	Icarus Verilog
$end
$timescale
	1s
$end
$scope module test_bench $end
$scope module computer $end
$var wire 1 ! clock $end
$var wire 1 " rx $end
$var wire 1 # tx $end
$var wire 8 $ rx_data [7:0] $end
$var wire 8 % rs_data [7:0] $end
$var wire 1 & reg_w_en $end
$var wire 1 ' receive_flag $end
$var wire 8 ( rd_data [7:0] $end
$var wire 8 ) pc [7:0] $end
$var wire 1 * mem_w_en $end
$var wire 8 + mem_r_data [7:0] $end
$var wire 1 , int_req $end
$var wire 8 - instr [7:0] $end
$var wire 1 . busy_flag $end
$var wire 8 / _mem_r_data [7:0] $end
$var reg 1 0 begin_flag $end
$var reg 8 1 int_en [7:0] $end
$var reg 8 2 int_vec [7:0] $end
$var reg 1 3 rx_en $end
$var reg 8 4 tx_data [7:0] $end
$var reg 1 5 tx_en $end
$scope module UART $end
$var wire 1 0 begin_flag $end
$var wire 1 ! clk $end
$var wire 1 6 end_flag $end
$var wire 1 " rx $end
$var wire 1 3 rx_en $end
$var wire 8 7 tx_data [7:0] $end
$var wire 1 5 tx_en $end
$var wire 1 # tx $end
$var wire 8 8 rx_data [7:0] $end
$var wire 1 & reg_w_en $end
$var wire 1 ' receive_flag $end
$var wire 1 . busy_flag $end
$var wire 8 9 access_addr [7:0] $end
$var reg 1 , int_req $end
$var reg 1 : state $end
$scope module rx1 $end
$var wire 1 ! clk $end
$var wire 1 " rx $end
$var wire 1 3 rx_en $end
$var wire 1 ; update_flag $end
$var reg 3 < bit_count [2:0] $end
$var reg 32 = clk_count [31:0] $end
$var reg 8 > data [7:0] $end
$var reg 1 ' end_flag $end
$var reg 4 ? recent [3:0] $end
$var reg 2 @ state [1:0] $end
$upscope $end
$scope module tx1 $end
$var wire 1 0 begin_flag $end
$var wire 1 . busy_flag $end
$var wire 1 ! clk $end
$var wire 8 A data [7:0] $end
$var wire 1 5 tx_en $end
$var wire 1 B update_flag $end
$var reg 3 C bit_count [2:0] $end
$var reg 32 D clk_count [31:0] $end
$var reg 2 E state [1:0] $end
$var reg 1 # tx $end
$upscope $end
$upscope $end
$scope module cpu $end
$var wire 1 ! clock $end
$var wire 8 F int_en [7:0] $end
$var wire 1 , int_req $end
$var wire 8 G int_vec [7:0] $end
$var wire 8 H mem_r_data [7:0] $end
$var wire 1 I register $end
$var wire 8 J rs_data [7:0] $end
$var wire 2 K rs_a_p [1:0] $end
$var wire 2 L rs_a [1:0] $end
$var wire 1 M ret $end
$var wire 8 N reg_w_imm [7:0] $end
$var wire 1 & reg_w_en $end
$var wire 8 O reg_w_data_p_p [7:0] $end
$var wire 8 P reg_w_data_p [7:0] $end
$var wire 8 Q reg_w_data [7:0] $end
$var wire 1 R reg_reg_mem_w_sel $end
$var wire 1 S reg_alu_w_sel $end
$var wire 8 T rd_data [7:0] $end
$var wire 2 U rd_a_p [1:0] $end
$var wire 2 V rd_a [1:0] $end
$var wire 4 W opcode [3:0] $end
$var wire 1 * mem_w_en $end
$var wire 1 X jmp_en $end
$var wire 1 Y je_en $end
$var wire 8 Z instr [7:0] $end
$var wire 1 [ imm_en $end
$var wire 4 \ imm [3:0] $end
$var wire 1 ] ih_il_sel $end
$var wire 1 ^ flag_w_en $end
$var wire 8 _ alu_out [7:0] $end
$var wire 4 ` alu_ctrl [3:0] $end
$var reg 1 a _flag $end
$var reg 1 b flag $end
$var reg 1 c intr_en $end
$var reg 8 d pc [7:0] $end
$var reg 8 e ret_addr [7:0] $end
$scope module alu $end
$var wire 8 f rs [7:0] $end
$var wire 8 g rd [7:0] $end
$var wire 8 h alu_out [7:0] $end
$var wire 4 i alu_ctrl [3:0] $end
$scope function execute $end
$var reg 4 j alu_ctrl [3:0] $end
$var reg 8 k execute [7:0] $end
$var reg 8 l rd [7:0] $end
$var reg 8 m rs [7:0] $end
$upscope $end
$upscope $end
$scope module alu_controller $end
$var wire 4 n opcode [3:0] $end
$var wire 4 o alu_ctrl [3:0] $end
$scope function alu_control $end
$var reg 4 p alu_control [3:0] $end
$var reg 4 q opcode [3:0] $end
$upscope $end
$upscope $end
$scope module decoder $end
$var wire 2 r rs_a [1:0] $end
$var wire 2 s rd_a [1:0] $end
$var wire 4 t opcode [3:0] $end
$var wire 8 u instr [7:0] $end
$var wire 4 v imm [3:0] $end
$upscope $end
$scope module main_controller $end
$var wire 4 w opcode [3:0] $end
$var wire 2 x rd_a [1:0] $end
$var wire 1 M ret $end
$var wire 1 & reg_w_en $end
$var wire 1 R reg_reg_mem_w_sel $end
$var wire 1 S reg_alu_w_sel $end
$var wire 1 * mem_w_en $end
$var wire 1 X jmp_en $end
$var wire 1 Y je_en $end
$var wire 1 [ imm_en $end
$var wire 1 ] ih_il_sel $end
$var wire 1 ^ flag_w_en $end
$scope function main_control $end
$var reg 10 y main_control [9:0] $end
$var reg 4 z opcode [3:0] $end
$var reg 2 { rd_a [1:0] $end
$upscope $end
$upscope $end
$scope module regfile $end
$var wire 1 ! clock $end
$var wire 1 I intr_en $end
$var wire 2 | rd_addr [1:0] $end
$var wire 2 } rs_addr [1:0] $end
$var wire 8 ~ w_data [7:0] $end
$var wire 1 & w_en $end
$var wire 8 !" rs_data [7:0] $end
$var wire 8 "" rd_data [7:0] $end
$upscope $end
$upscope $end
$scope module data_mem $end
$var wire 8 #" addr [7:0] $end
$var wire 1 ! clock $end
$var wire 8 $" r_data [7:0] $end
$var wire 8 %" w_data [7:0] $end
$var wire 1 * w_en $end
$upscope $end
$scope module instr_mem $end
$var wire 8 &" addr [7:0] $end
$var wire 8 '" instr [7:0] $end
$upscope $end
$upscope $end
$upscope $end
$enddefinitions $end
#0
$dumpvars
b11000000 '"
b0 &"
bx %"
bx $"
bx #"
bx ""
bx !"
b0xxxx ~
b11 }
b11 |
b0 {
b1100 z
b1000011000 y
b0 x
b1100 w
b0 v
b11000000 u
b1100 t
b0 s
b0 r
b1100 q
bx p
bx o
b1100 n
bx m
bx l
b0 k
bx j
bx i
b0 h
bx g
bx f
bx e
b0 d
0c
xb
xa
bx `
b0 _
0^
1]
b0 \
1[
b11000000 Z
0Y
0X
b1100 W
b11 V
b0 U
bx T
0S
0R
b0xxxx Q
bx P
bx O
b0xxxx N
0M
b11 L
b0 K
bx J
zI
bx H
bx G
bx F
b0 E
b0 D
b0 C
0B
bx A
b0 @
b1111 ?
b0 >
b0 =
b0 <
0;
0:
bx 9
b0 8
bx 7
z6
x5
bx 4
x3
bx 2
bx 1
x0
bx /
0.
b11000000 -
0,
bx +
0*
b0 )
bx (
0'
1&
bx %
b0 $
1#
z"
0!
$end
#1
bx0001 Q
bx0001 ~
0]
bx0001 N
b1000010000 y
b1101 z
b1101 q
b1 \
b1 v
b1 K
b1 r
b1101 W
b1101 n
b1101 t
b1101 w
b11010001 -
b11010001 Z
b11010001 u
b11010001 '"
b1 )
b1 d
b1 &"
b1 1
b1 F
b111z ?
00
1!
#2
0!
#3
b0 V
b0 |
bx Q
bx ~
0[
bx0011 N
b1000000000 y
b0 z
b0 q
b11 \
b11 v
b11 K
b11 r
b0 W
b0 n
b0 t
b0 w
b11 -
b11 Z
b11 u
b11 '"
b10 )
b10 d
b10 &"
b11zz ?
1!
#4
0!
#5
b1111xxxx Q
b1111xxxx ~
1]
1[
b1111xxxx N
b11 V
b11 |
b1000011000 y
b11 {
b1100 z
b1100 q
b1111 \
b1111 v
b11 U
b11 s
b11 x
b1100 W
b1100 n
b1100 t
b1100 w
b11001111 -
b11001111 Z
b11001111 u
b11001111 '"
b11 )
b11 d
b11 &"
b1zzz ?
1!
#6
0!
#7
bx1111 Q
bx1111 ~
bx1111 N
0]
b1000010000 y
b1101 z
b1101 q
b1101 W
b1101 n
b1101 t
b1101 w
b11011111 -
b11011111 Z
b11011111 u
b11011111 '"
b100 )
b100 d
b100 &"
b0x @
bz ?
1!
#8
0!
#9
b0 V
b0 |
bx Q
bx ~
0[
1*
0&
bx0011 N
b100000000 y
b0 {
b1111 z
b1111 q
b11 \
b11 v
b0 U
b0 s
b0 x
b1111 W
b1111 n
b1111 t
b1111 w
b11110011 -
b11110011 Z
b11110011 u
b11110011 '"
b101 )
b101 d
b101 &"
1!
#10
0!
#11
b100xxxx Q
b100xxxx ~
1]
1[
0*
1&
b100xxxx N
b11 L
b11 }
b11 V
b11 |
b1000011000 y
b1 {
b1100 z
b1100 q
b100 \
b100 v
b0 K
b0 r
b1 U
b1 s
b1 x
b1100 W
b1100 n
b1100 t
b1100 w
b11000100 -
b11000100 Z
b11000100 u
b11000100 '"
b110 )
b110 d
b110 &"
1!
#12
0!
#13
bx0001 Q
bx0001 ~
0]
bx0001 N
b1000010000 y
b0 {
b1101 z
b1101 q
b1 \
b1 v
b1 K
b1 r
b0 U
b0 s
b0 x
b1101 W
b1101 n
b1101 t
b1101 w
b11010001 -
b11010001 Z
b11010001 u
b11010001 '"
b111 )
b111 d
b111 &"
1!
#14
0!
#15
b0 V
b0 |
bx Q
bx ~
0[
bx0011 N
b1000000000 y
b0 z
b0 q
b11 \
b11 v
b11 K
b11 r
b0 W
b0 n
b0 t
b0 w
b11 -
b11 Z
b11 u
b11 '"
b1000 )
b1000 d
b1000 &"
1!
#16
0!
#17
b1111xxxx Q
b1111xxxx ~
1]
1[
b1111xxxx N
b11 V
b11 |
b1000011000 y
b11 {
b1100 z
b1100 q
b1111 \
b1111 v
b11 U
b11 s
b11 x
b1100 W
b1100 n
b1100 t
b1100 w
b11001111 -
b11001111 Z
b11001111 u
b11001111 '"
b1001 )
b1001 d
b1001 &"
1!
#18
0!
#19
bx1101 Q
bx1101 ~
0]
bx1101 N
b1000010000 y
b1101 z
b1101 q
b1101 \
b1101 v
b1 K
b1 r
b1101 W
b1101 n
b1101 t
b1101 w
b11011101 -
b11011101 Z
b11011101 u
b11011101 '"
b1010 )
b1010 d
b1010 &"
1!
#20
0!
#21
b1 V
b1 |
bx Q
bx ~
0[
bx0111 N
b1000000000 y
b1 {
b0 z
b0 q
b111 \
b111 v
b11 K
b11 r
b1 U
b1 s
b1 x
b0 W
b0 n
b0 t
b0 w
b111 -
b111 Z
b111 u
b111 '"
b1011 )
b1011 d
b1011 &"
1!
#22
0!
#23
b1111xxxx Q
b1111xxxx ~
1]
1[
b1111xxxx N
b11 V
b11 |
b1000011000 y
b11 {
b1100 z
b1100 q
b1111 \
b1111 v
b11 U
b11 s
b11 x
b1100 W
b1100 n
b1100 t
b1100 w
b11001111 -
b11001111 Z
b11001111 u
b11001111 '"
b1100 )
b1100 d
b1100 &"
1!
#24
0!
#25
bx1110 Q
bx1110 ~
0]
bx1110 N
b1000010000 y
b1101 z
b1101 q
b1110 \
b1110 v
b10 K
b10 r
b1101 W
b1101 n
b1101 t
b1101 w
b11011110 -
b11011110 Z
b11011110 u
b11011110 '"
b1101 )
b1101 d
b1101 &"
1!
#26
0!
#27
b10 V
b10 |
bx Q
bx ~
0[
1R
bx1011 N
b1010000000 y
b10 {
b1110 z
b1110 q
b1011 \
b1011 v
b11 K
b11 r
b10 U
b10 s
b10 x
b1110 W
b1110 n
b1110 t
b1110 w
b11101011 -
b11101011 Z
b11101011 u
b11101011 '"
b1110 )
b1110 d
b1110 &"
1!
#28
0!
#29
b0xxxx Q
b0xxxx ~
1]
1[
0R
b0xxxx N
b11 L
b11 }
b11 V
b11 |
b1000011000 y
b0 {
b1100 z
b1100 q
b0 \
b0 v
b0 K
b0 r
b0 U
b0 s
b0 x
b1100 W
b1100 n
b1100 t
b1100 w
b11000000 -
b11000000 Z
b11000000 u
b11000000 '"
b1111 )
b1111 d
b1111 &"
1!
#30
0!
#31
bx0001 Q
bx0001 ~
0]
bx0001 N
b1000010000 y
b1101 z
b1101 q
b1 \
b1 v
b1 K
b1 r
b1101 W
b1101 n
b1101 t
b1101 w
b11010001 -
b11010001 Z
b11010001 u
b11010001 '"
b10000 )
b10000 d
b10000 &"
1!
#32
0!
#33
b10 V
b10 |
bx Q
bx ~
0[
1S
bx _
bx h
bx k
b1 j
bx1011 N
b1001000000 y
b10 {
b11 z
b1 `
b1 i
b1 o
b1 p
b11 q
b1011 \
b1011 v
b11 K
b11 r
b10 U
b10 s
b10 x
b11 W
b11 n
b11 t
b11 w
b111011 -
b111011 Z
b111011 u
b111011 '"
b10001 )
b10001 d
b10001 &"
1!
#34
0!
#35
b0x Q
b0x ~
b0x P
1^
0&
b0x _
b0x h
b0x k
b111 j
b1100000 y
b1001 z
b111 `
b111 i
b111 o
b111 p
b1001 q
b1001 W
b1001 n
b1001 t
b1001 w
b10011011 -
b10011011 Z
b10011011 u
b10011011 '"
b10010 )
b10010 d
b10010 &"
1!
#36
0!
#37
b0xxxx Q
b0xxxx ~
bx P
1]
1[
0^
0S
1&
b0xxxx N
b11 L
b11 }
b11 V
b11 |
b1000011000 y
b0 {
b1100 z
b1100 q
b0 \
b0 v
b0 K
b0 r
b0 U
b0 s
b0 x
b1100 W
b1100 n
b1100 t
b1100 w
b11000000 -
b11000000 Z
b11000000 u
b11000000 '"
b10011 )
b10011 d
b10011 &"
1!
#38
0!
#39
bx1100 Q
bx1100 ~
0]
bx1100 N
b1000010000 y
b11 {
b1101 z
b1101 q
b1100 \
b1100 v
b11 U
b11 s
b11 x
b1101 W
b1101 n
b1101 t
b1101 w
b11011100 -
b11011100 Z
b11011100 u
b11011100 '"
b10100 )
b10100 d
b10100 &"
1!
#40
0!
#41
b0 V
b0 |
bx Q
bx ~
1Y
0[
0&
bx0011 N
b10 y
b0 {
b1010 z
b1010 q
b11 \
b11 v
b11 K
b11 r
b0 U
b0 s
b0 x
b1010 W
b1010 n
b1010 t
b1010 w
b10100011 -
b10100011 Z
b10100011 u
b10100011 '"
b10101 )
b10101 d
b10101 &"
1!
#42
0!
#43
0Y
1*
bx0001 N
b1 L
b1 }
b100000000 y
b1111 z
b1111 q
b1 \
b1 v
b1 K
b1 r
b1111 W
b1111 n
b1111 t
b1111 w
b11110001 -
b11110001 Z
b11110001 u
b11110001 '"
b10110 )
b10110 d
b10110 &"
0b
1!
#44
0!
#45
b0xxxx Q
b0xxxx ~
b11 V
b11 |
1]
1[
0*
1&
b0xxxx N
b11 L
b11 }
b1000011000 y
b1100 z
b1100 q
b0 \
b0 v
b0 K
b0 r
b1100 W
b1100 n
b1100 t
b1100 w
b11000000 -
b11000000 Z
b11000000 u
b11000000 '"
b10111 )
b10111 d
b10111 &"
1!
#46
0!
#47
bx0110 Q
bx0110 ~
0]
bx0110 N
b1000010000 y
b1 {
b1101 z
b1101 q
b110 \
b110 v
b10 K
b10 r
b1 U
b1 s
b1 x
b1101 W
b1101 n
b1101 t
b1101 w
b11010110 -
b11010110 Z
b11010110 u
b11010110 '"
b11000 )
b11000 d
b11000 &"
1!
#48
0!
#49
b0 V
b0 |
bx Q
bx ~
1X
0[
0&
bx0011 N
b100 y
b0 {
b1011 z
b1011 q
b11 \
b11 v
b11 K
b11 r
b0 U
b0 s
b0 x
b1011 W
b1011 n
b1011 t
b1011 w
b10110011 -
b10110011 Z
b10110011 u
b10110011 '"
b11001 )
b11001 d
b11001 &"
1!
#50
0!
#51
bx N
bx L
bx }
bx V
bx |
bx {
bx z
bx q
bx \
bx v
bx K
bx r
bx U
bx s
bx x
bx W
bx n
bx t
bx w
bx -
bx Z
bx u
bx '"
bx )
bx d
bx &"
1!
